PROJETO_VHDL_3/simulation/qsim/M12121ECP015.msim.vcd
$comment
	File created using the following command:
		vcd file M12121ECP015.msim.vcd -direction
$end
$date
	Tue Mar 26 11:31:13 2024
$end
$version
	ModelSim Version 2020.1
$end
$timescale
	1ps
$end

$scope module m12121ecp015_vhd_vec_tst $end
$var wire 1 ! A $end
$var wire 1 " B $end
$var wire 1 # S $end

$scope module i1 $end
$var wire 1 $ gnd $end
$var wire 1 % vcc $end
$var wire 1 & unknown $end
$var wire 1 ' devoe $end
$var wire 1 ( devclrn $end
$var wire 1 ) devpor $end
$var wire 1 * ww_devoe $end
$var wire 1 + ww_devclrn $end
$var wire 1 , ww_devpor $end
$var wire 1 - ww_A $end
$var wire 1 . ww_B $end
$var wire 1 / ww_S $end
$var wire 1 0 \~QUARTUS_CREATED_ADC1~_CHSEL_bus\ [4] $end
$var wire 1 1 \~QUARTUS_CREATED_ADC1~_CHSEL_bus\ [3] $end
$var wire 1 2 \~QUARTUS_CREATED_ADC1~_CHSEL_bus\ [2] $end
$var wire 1 3 \~QUARTUS_CREATED_ADC1~_CHSEL_bus\ [1] $end
$var wire 1 4 \~QUARTUS_CREATED_ADC1~_CHSEL_bus\ [0] $end
$var wire 1 5 \~QUARTUS_CREATED_GND~I_combout\ $end
$var wire 1 6 \~QUARTUS_CREATED_UNVM~~busy\ $end
$var wire 1 7 \~QUARTUS_CREATED_ADC1~~eoc\ $end
$var wire 1 8 \S~output_o\ $end
$var wire 1 9 \A~input_o\ $end
$var wire 1 : \B~input_o\ $end
$var wire 1 ; \S~0_combout\ $end
$upscope $end
$upscope $end
$enddefinitions $end
#0
$dumpvars
0!
0"
0#
0$
1%
x&
1'
1(
1)
1*
1+
1,
0-
0.
0/
05
z6
z7
08
09
0:
0;
00
01
02
03
04
$end
#15000
1"
1.
1:
#30000
0"
1!
0.
1-
19
0:
#45000
1"
1.
1:
1;
18
1/
1#
#60000
0"
0!
0.
0-
09
0:
0;
08
0/
0#
#75000
1"
1.
1:
#90000
0"
1!
0.
1-
19
0:
#105000
1"
1.
1:
1;
18
1/
1#
