PROJETO_VHDL_3B/simulation/qsim/12121ECP015.msim.vcd
$comment
	File created using the following command:
		vcd file 12121ECP015.msim.vcd -direction
$end
$date
	Tue Mar 26 11:58:54 2024
$end
$version
	ModelSim Version 2020.1
$end
$timescale
	1ps
$end

$scope module m12121ecp015_vhd_vec_tst $end
$var wire 1 ! A $end
$var wire 1 " B $end
$var wire 1 # C $end
$var wire 1 $ D $end
$var wire 1 % S $end

$scope module i1 $end
$var wire 1 & gnd $end
$var wire 1 ' vcc $end
$var wire 1 ( unknown $end
$var wire 1 ) devoe $end
$var wire 1 * devclrn $end
$var wire 1 + devpor $end
$var wire 1 , ww_devoe $end
$var wire 1 - ww_devclrn $end
$var wire 1 . ww_devpor $end
$var wire 1 / ww_A $end
$var wire 1 0 ww_B $end
$var wire 1 1 ww_C $end
$var wire 1 2 ww_D $end
$var wire 1 3 ww_S $end
$var wire 1 4 \~QUARTUS_CREATED_ADC1~_CHSEL_bus\ [4] $end
$var wire 1 5 \~QUARTUS_CREATED_ADC1~_CHSEL_bus\ [3] $end
$var wire 1 6 \~QUARTUS_CREATED_ADC1~_CHSEL_bus\ [2] $end
$var wire 1 7 \~QUARTUS_CREATED_ADC1~_CHSEL_bus\ [1] $end
$var wire 1 8 \~QUARTUS_CREATED_ADC1~_CHSEL_bus\ [0] $end
$var wire 1 9 \~QUARTUS_CREATED_GND~I_combout\ $end
$var wire 1 : \~QUARTUS_CREATED_UNVM~~busy\ $end
$var wire 1 ; \~QUARTUS_CREATED_ADC1~~eoc\ $end
$var wire 1 < \S~output_o\ $end
$var wire 1 = \A~input_o\ $end
$var wire 1 > \C~input_o\ $end
$var wire 1 ? \D~input_o\ $end
$var wire 1 @ \B~input_o\ $end
$var wire 1 A \S~0_combout\ $end
$upscope $end
$upscope $end
$enddefinitions $end
#0
$dumpvars
0!
0"
0#
0$
1%
0&
1'
x(
1)
1*
1+
1,
1-
1.
0/
00
01
02
13
09
z:
z;
1<
0=
0>
0?
0@
1A
04
05
06
07
08
$end
#5000
1$
12
1?
#10000
0$
1#
02
11
1>
0?
#15000
1$
12
1?
0A
0<
03
0%
#20000
0$
0#
1"
02
01
10
1@
0>
0?
1A
1<
13
1%
#25000
1$
12
1?
#30000
0$
1#
02
11
1>
0?
#35000
1$
12
1?
0A
0<
03
0%
#40000
0$
0#
0"
1!
02
01
00
1/
1=
0@
0>
0?
1A
1<
13
1%
#45000
1$
12
1?
#50000
0$
1#
02
11
1>
0?
#55000
1$
12
1?
0A
0<
03
0%
#60000
0$
0#
1"
02
01
10
1@
0>
0?
1A
1<
13
1%
#65000
1$
12
1?
#70000
0$
1#
02
11
1>
0?
0A
0<
03
0%
#75000
1$
12
1?
1A
1<
13
1%
#80000
0$
0#
0"
0!
02
01
00
0/
0=
0@
0>
0?
#85000
1$
12
1?
#90000
0$
1#
02
11
1>
0?
#95000
1$
12
1?
0A
0<
03
0%
#100000
0$
0#
1"
02
01
10
1@
0>
0?
1A
1<
13
1%
#105000
1$
12
1?
#110000
0$
1#
02
11
1>
0?
#115000
1$
12
1?
0A
0<
03
0%
#120000
0$
0#
0"
1!
02
01
00
1/
1=
0@
0>
0?
1A
1<
13
1%
#125000
1$
12
1?
#130000
0$
1#
02
11
1>
0?
#135000
1$
12
1?
0A
0<
03
0%
#140000
0$
0#
1"
02
01
10
1@
0>
0?
1A
1<
13
1%
#145000
1$
12
1?
#150000
0$
1#
02
11
1>
0?
0A
0<
03
0%
#155000
1$
12
1?
1A
1<
13
1%
