PROJETO_VHDL_9/Experimento B/simulation/qsim/M12121ECP015.msim.vcd
$comment
	File created using the following command:
		vcd file M12121ECP015.msim.vcd -direction
$end
$date
	Tue Apr 02 12:05:40 2024
$end
$version
	ModelSim Version 2020.1
$end
$timescale
	1ps
$end

$scope module m12121ecp015_vhd_vec_tst $end
$var wire 1 ! S1 $end
$var wire 1 " S2 $end
$var wire 1 # VET [3] $end
$var wire 1 $ VET [2] $end
$var wire 1 % VET [1] $end
$var wire 1 & VET [0] $end

$scope module i1 $end
$var wire 1 ' gnd $end
$var wire 1 ( vcc $end
$var wire 1 ) unknown $end
$var wire 1 * devoe $end
$var wire 1 + devclrn $end
$var wire 1 , devpor $end
$var wire 1 - ww_devoe $end
$var wire 1 . ww_devclrn $end
$var wire 1 / ww_devpor $end
$var wire 1 0 ww_VET [3] $end
$var wire 1 1 ww_VET [2] $end
$var wire 1 2 ww_VET [1] $end
$var wire 1 3 ww_VET [0] $end
$var wire 1 4 ww_S1 $end
$var wire 1 5 ww_S2 $end
$var wire 1 6 \~QUARTUS_CREATED_ADC1~_CHSEL_bus\ [4] $end
$var wire 1 7 \~QUARTUS_CREATED_ADC1~_CHSEL_bus\ [3] $end
$var wire 1 8 \~QUARTUS_CREATED_ADC1~_CHSEL_bus\ [2] $end
$var wire 1 9 \~QUARTUS_CREATED_ADC1~_CHSEL_bus\ [1] $end
$var wire 1 : \~QUARTUS_CREATED_ADC1~_CHSEL_bus\ [0] $end
$var wire 1 ; \~QUARTUS_CREATED_GND~I_combout\ $end
$var wire 1 < \~QUARTUS_CREATED_UNVM~~busy\ $end
$var wire 1 = \~QUARTUS_CREATED_ADC1~~eoc\ $end
$var wire 1 > \S1~output_o\ $end
$var wire 1 ? \S2~output_o\ $end
$var wire 1 @ \VET[0]~input_o\ $end
$var wire 1 A \VET[1]~input_o\ $end
$var wire 1 B \VET[2]~input_o\ $end
$var wire 1 C \VET[3]~input_o\ $end
$var wire 1 D \Mux0~0_combout\ $end
$var wire 1 E \Mux1~0_combout\ $end
$var wire 1 F \ALT_INV_Mux0~0_combout\ $end
$upscope $end
$upscope $end
$enddefinitions $end
#0
$dumpvars
1!
0"
0'
1(
x)
1*
1+
1,
1-
1.
1/
14
05
0;
z<
z=
1>
0?
0@
0A
0B
0C
0D
0E
1F
0#
0$
0%
0&
00
01
02
03
06
07
08
09
0:
$end
#5000
1&
13
1@
1D
0F
0>
04
0!
#10000
0&
1%
03
12
1A
0@
1E
1?
15
1"
#15000
1&
13
1@
0D
1F
1>
14
1!
#20000
0&
0%
1$
03
02
11
1B
0A
0@
1D
0F
0>
04
0!
#25000
1&
13
1@
0E
0?
05
0"
#30000
0&
1%
03
12
1A
0@
1E
1?
15
1"
#35000
1&
13
1@
0D
0E
1F
0?
1>
05
14
0"
1!
#40000
0&
0%
0$
1#
03
02
01
10
1C
0B
0A
0@
#45000
1&
13
1@
1D
1E
0F
1?
0>
15
04
1"
0!
#50000
0&
1%
03
12
1A
0@
0D
0E
1F
0?
1>
05
14
0"
1!
#55000
1&
13
1@
#60000
0&
0%
1$
03
02
11
1B
0A
0@
#65000
1&
13
1@
1E
1?
15
1"
#70000
0&
1%
03
12
1A
0@
1D
0E
0F
0?
0>
05
04
0"
0!
#75000
1&
13
1@
0D
1F
1>
14
1!
#80000
0&
0%
0$
0#
03
02
01
00
0C
0B
0A
0@
#85000
1&
13
1@
1D
0F
0>
04
0!
#90000
0&
1%
03
12
1A
0@
1E
1?
15
1"
#95000
1&
13
1@
0D
1F
1>
14
1!
#100000
0&
0%
1$
03
02
11
1B
0A
0@
1D
0F
0>
04
0!
#105000
1&
13
1@
0E
0?
05
0"
#110000
0&
1%
03
12
1A
0@
1E
1?
15
1"
#115000
1&
13
1@
0D
0E
1F
0?
1>
05
14
0"
1!
#120000
0&
0%
0$
1#
03
02
01
10
1C
0B
0A
0@
#125000
1&
13
1@
1D
1E
0F
1?
0>
15
04
1"
0!
#130000
0&
1%
03
12
1A
0@
0D
0E
1F
0?
1>
05
14
0"
1!
#135000
1&
13
1@
#140000
0&
0%
1$
03
02
11
1B
0A
0@
#145000
1&
13
1@
1E
1?
15
1"
#150000
0&
1%
03
12
1A
0@
1D
0E
0F
0?
0>
05
04
0"
0!
#155000
1&
13
1@
0D
1F
1>
14
1!
