PROJETO_VHDL_10/Experimento A/simulation/qsim/M12121ECP015.msim.vcd
$comment
	File created using the following command:
		vcd file M12121ECP015.msim.vcd -direction
$end
$date
	Tue Apr 09 11:34:54 2024
$end
$version
	ModelSim Version 2020.1
$end
$timescale
	1ps
$end

$scope module m12121ecp015_vhd_vec_tst $end
$var wire 1 ! D0 $end
$var wire 1 " D1 $end
$var wire 1 # D2 $end
$var wire 1 $ D3 $end
$var wire 1 % S $end
$var wire 1 & X [1] $end
$var wire 1 ' X [0] $end

$scope module i1 $end
$var wire 1 ( gnd $end
$var wire 1 ) vcc $end
$var wire 1 * unknown $end
$var wire 1 + devoe $end
$var wire 1 , devclrn $end
$var wire 1 - devpor $end
$var wire 1 . ww_devoe $end
$var wire 1 / ww_devclrn $end
$var wire 1 0 ww_devpor $end
$var wire 1 1 ww_D0 $end
$var wire 1 2 ww_D1 $end
$var wire 1 3 ww_D2 $end
$var wire 1 4 ww_D3 $end
$var wire 1 5 ww_X [1] $end
$var wire 1 6 ww_X [0] $end
$var wire 1 7 ww_S $end
$var wire 1 8 \~QUARTUS_CREATED_ADC1~_CHSEL_bus\ [4] $end
$var wire 1 9 \~QUARTUS_CREATED_ADC1~_CHSEL_bus\ [3] $end
$var wire 1 : \~QUARTUS_CREATED_ADC1~_CHSEL_bus\ [2] $end
$var wire 1 ; \~QUARTUS_CREATED_ADC1~_CHSEL_bus\ [1] $end
$var wire 1 < \~QUARTUS_CREATED_ADC1~_CHSEL_bus\ [0] $end
$var wire 1 = \~QUARTUS_CREATED_GND~I_combout\ $end
$var wire 1 > \~QUARTUS_CREATED_UNVM~~busy\ $end
$var wire 1 ? \~QUARTUS_CREATED_ADC1~~eoc\ $end
$var wire 1 @ \S~output_o\ $end
$var wire 1 A \D3~input_o\ $end
$var wire 1 B \D2~input_o\ $end
$var wire 1 C \X[1]~input_o\ $end
$var wire 1 D \D1~input_o\ $end
$var wire 1 E \D0~input_o\ $end
$var wire 1 F \X[0]~input_o\ $end
$var wire 1 G \Mux0~0_combout\ $end
$var wire 1 H \Mux0~1_combout\ $end
$upscope $end
$upscope $end
$enddefinitions $end
#0
$dumpvars
0!
0"
0#
0$
0%
0(
1)
x*
1+
1,
1-
1.
1/
10
01
02
03
04
07
0=
z>
z?
0@
0A
0B
0C
0D
0E
0F
0G
0H
0&
0'
05
06
08
09
0:
0;
0<
$end
#100
1#
13
1B
#1000
1"
12
1D
#1900
1!
11
1E
1G
1H
1@
17
1%
#2000
0!
0"
0#
1$
01
02
03
14
1A
0B
0D
0E
0G
0H
0@
07
0%
#2100
1#
13
1B
#3000
1"
12
1D
#3900
1!
11
1E
1G
1H
1@
17
1%
#4000
0!
0"
0#
0$
01
02
03
04
0A
0B
0D
0E
0G
0H
0@
07
0%
#4100
1#
13
1B
#5000
1"
12
1D
#5900
1!
11
1E
1G
1H
1@
17
1%
#6000
0!
0"
0#
1$
01
02
03
14
1A
0B
0D
0E
0G
0H
0@
07
0%
#6100
1#
13
1B
#7000
1"
12
1D
#7900
1!
11
1E
1G
1H
1@
17
1%
#8000
0!
0"
0#
0$
01
02
03
04
0A
0B
0D
0E
0G
0H
0@
07
0%
#8100
1#
13
1B
#9000
1"
12
1D
#9900
1!
11
1E
1G
1H
1@
17
1%
#10000
0!
0"
0#
1$
1'
01
02
03
14
16
1F
1A
0B
0D
0E
0G
0H
0@
07
0%
#10100
1#
13
1B
#11000
1"
12
1D
1G
1H
1@
17
1%
#11900
1!
11
1E
#12000
0!
0"
0#
0$
01
02
03
04
0A
0B
0D
0E
0G
0H
0@
07
0%
#12100
1#
13
1B
#13000
1"
12
1D
1G
1H
1@
17
1%
#13900
1!
11
1E
#14000
0!
0"
0#
1$
01
02
03
14
1A
0B
0D
0E
0G
0H
0@
07
0%
#14100
1#
13
1B
#15000
1"
12
1D
1G
1H
1@
17
1%
#15900
1!
11
1E
#16000
0!
0"
0#
0$
01
02
03
04
0A
0B
0D
0E
0G
0H
0@
07
0%
#16100
1#
13
1B
#17000
1"
12
1D
1G
1H
1@
17
1%
#17900
1!
11
1E
#18000
0!
0"
0#
1$
01
02
03
14
1A
0B
0D
0E
0G
0H
0@
07
0%
#18100
1#
13
1B
#19000
1"
12
1D
1G
1H
1@
17
1%
#19900
1!
11
1E
#20000
0!
0"
0#
0$
0'
1&
01
02
03
04
06
15
1C
0F
0A
0B
0D
0E
0G
0H
0@
07
0%
#20100
1#
13
1B
1H
1@
17
1%
#21000
1"
12
1D
#21900
1!
11
1E
#22000
0!
0"
0#
1$
01
02
03
14
1A
0B
0D
0E
0H
0@
07
0%
#22100
1#
13
1B
1H
1@
17
1%
#23000
1"
12
1D
#23900
1!
11
1E
#24000
0!
0"
0#
0$
01
02
03
04
0A
0B
0D
0E
0H
0@
07
0%
#24100
1#
13
1B
1H
1@
17
1%
#25000
1"
12
1D
#25900
1!
11
1E
#26000
0!
0"
0#
1$
01
02
03
14
1A
0B
0D
0E
0H
0@
07
0%
#26100
1#
13
1B
1H
1@
17
1%
#27000
1"
12
1D
#27900
1!
11
1E
#28000
0!
0"
0#
0$
01
02
03
04
0A
0B
0D
0E
0H
0@
07
0%
#28100
1#
13
1B
1H
1@
17
1%
#29000
1"
12
1D
#29900
1!
11
1E
#30000
0!
0"
0#
1$
1'
01
02
03
14
16
1F
1A
0B
0D
0E
0H
1G
0@
1H
07
1@
0%
17
1%
#30100
1#
13
1B
#31000
1"
12
1D
#31900
1!
11
1E
#32000
0!
0"
0#
0$
01
02
03
04
0A
0B
0D
0E
0H
0@
07
0%
#32100
1#
13
1B
#33000
1"
12
1D
#33900
1!
11
1E
#34000
0!
0"
0#
1$
01
02
03
14
1A
0B
0D
0E
1H
1@
17
1%
#34100
1#
13
1B
#35000
1"
12
1D
#35900
1!
11
1E
#36000
0!
0"
0#
0$
01
02
03
04
0A
0B
0D
0E
0H
0@
07
0%
#36100
1#
13
1B
#37000
1"
12
1D
#37900
1!
11
1E
#38000
0!
0"
0#
1$
01
02
03
14
1A
0B
0D
0E
1H
1@
17
1%
#38100
1#
13
1B
#39000
1"
12
1D
#39900
1!
11
1E
#40000
0!
0"
0#
0$
0'
0&
01
02
03
04
06
05
0C
0F
0A
0B
0D
0E
0G
0H
0@
07
0%
#40100
1#
13
1B
#41000
1"
12
1D
#41900
1!
11
1E
1G
1H
1@
17
1%
#42000
0!
0"
0#
1$
01
02
03
14
1A
0B
0D
0E
0G
0H
0@
07
0%
#42100
1#
13
1B
#43000
1"
12
1D
#43900
1!
11
1E
1G
1H
1@
17
1%
#44000
0!
0"
0#
0$
01
02
03
04
0A
0B
0D
0E
0G
0H
0@
07
0%
#44100
1#
13
1B
#45000
1"
12
1D
#45900
1!
11
1E
1G
1H
1@
17
1%
#46000
0!
0"
0#
1$
01
02
03
14
1A
0B
0D
0E
0G
0H
0@
07
0%
#46100
1#
13
1B
#47000
1"
12
1D
#47900
1!
11
1E
1G
1H
1@
17
1%
#48000
0!
0"
0#
0$
01
02
03
04
0A
0B
0D
0E
0G
0H
0@
07
0%
#48100
1#
13
1B
#49000
1"
12
1D
#49900
1!
11
1E
1G
1H
1@
17
1%
#50000
0!
0"
0#
1$
1'
01
02
03
14
16
1F
1A
0B
0D
0E
0G
0H
0@
07
0%
#50100
1#
13
1B
#51000
1"
12
1D
1G
1H
1@
17
1%
#51900
1!
11
1E
#52000
0!
0"
0#
0$
01
02
03
04
0A
0B
0D
0E
0G
0H
0@
07
0%
#52100
1#
13
1B
#53000
1"
12
1D
1G
1H
1@
17
1%
#53900
1!
11
1E
#54000
0!
0"
0#
1$
01
02
03
14
1A
0B
0D
0E
0G
0H
0@
07
0%
#54100
1#
13
1B
#55000
1"
12
1D
1G
1H
1@
17
1%
#55900
1!
11
1E
#56000
0!
0"
0#
0$
01
02
03
04
0A
0B
0D
0E
0G
0H
0@
07
0%
#56100
1#
13
1B
#57000
1"
12
1D
1G
1H
1@
17
1%
#57900
1!
11
1E
#58000
0!
0"
0#
1$
01
02
03
14
1A
0B
0D
0E
0G
0H
0@
07
0%
#58100
1#
13
1B
#59000
1"
12
1D
1G
1H
1@
17
1%
#59900
1!
11
1E
#60000
0!
0"
0#
0$
0'
1&
01
02
03
04
06
15
1C
0F
0A
0B
0D
0E
0G
0H
0@
07
0%
#60100
1#
13
1B
1H
1@
17
1%
#61000
1"
12
1D
#61900
1!
11
1E
#62000
0!
0"
0#
1$
01
02
03
14
1A
0B
0D
0E
0H
0@
07
0%
#62100
1#
13
1B
1H
1@
17
1%
#63000
1"
12
1D
#63900
1!
11
1E
#64000
0!
0"
0#
0$
01
02
03
04
0A
0B
0D
0E
0H
0@
07
0%
#64100
1#
13
1B
1H
1@
17
1%
#65000
1"
12
1D
#65900
1!
11
1E
#66000
0!
0"
0#
1$
01
02
03
14
1A
0B
0D
0E
0H
0@
07
0%
#66100
1#
13
1B
1H
1@
17
1%
#67000
1"
12
1D
#67900
1!
11
1E
#68000
0!
0"
0#
0$
01
02
03
04
0A
0B
0D
0E
0H
0@
07
0%
#68100
1#
13
1B
1H
1@
17
1%
#69000
1"
12
1D
#69900
1!
11
1E
#70000
0!
0"
0#
1$
1'
01
02
03
14
16
1F
1A
0B
0D
0E
0H
1G
0@
1H
07
1@
0%
17
1%
#70100
1#
13
1B
#71000
1"
12
1D
#71900
1!
11
1E
#72000
0!
0"
0#
0$
01
02
03
04
0A
0B
0D
0E
0H
0@
07
0%
#72100
1#
13
1B
#73000
1"
12
1D
#73900
1!
11
1E
#74000
0!
0"
0#
1$
01
02
03
14
1A
0B
0D
0E
1H
1@
17
1%
#74100
1#
13
1B
#75000
1"
12
1D
#75900
1!
11
1E
#76000
0!
0"
0#
0$
01
02
03
04
0A
0B
0D
0E
0H
0@
07
0%
#76100
1#
13
1B
#77000
1"
12
1D
#77900
1!
11
1E
#78000
0!
0"
0#
1$
01
02
03
14
1A
0B
0D
0E
1H
1@
17
1%
#78100
1#
13
1B
#79000
1"
12
1D
#79900
1!
11
1E
